{
	"compiler": {
		"version": "0.5.17+commit.d19bba13"
	},
	"language": "Solidity",
	"output": {
		"abi": [
			{
				"constant": false,
				"inputs": [
					{
						"internalType": "string",
						"name": "_task",
						"type": "string"
					}
				],
				"name": "addTask",
				"outputs": [],
				"payable": false,
				"stateMutability": "nonpayable",
				"type": "function"
			},
			{
				"constant": false,
				"inputs": [
					{
						"internalType": "uint256",
						"name": "_taskIndex",
						"type": "uint256"
					}
				],
				"name": "deleteTask",
				"outputs": [],
				"payable": false,
				"stateMutability": "nonpayable",
				"type": "function"
			},
			{
				"constant": true,
				"inputs": [],
				"name": "getTaskCount",
				"outputs": [
					{
						"internalType": "uint256",
						"name": "",
						"type": "uint256"
					}
				],
				"payable": false,
				"stateMutability": "view",
				"type": "function"
			},
			{
				"constant": true,
				"inputs": [],
				"name": "getTaskList",
				"outputs": [
					{
						"components": [
							{
								"internalType": "uint256",
								"name": "id",
								"type": "uint256"
							},
							{
								"internalType": "string",
								"name": "task",
								"type": "string"
							},
							{
								"internalType": "bool",
								"name": "isCompleted",
								"type": "bool"
							}
						],
						"internalType": "struct TaskManager.Task[]",
						"name": "",
						"type": "tuple[]"
					}
				],
				"payable": false,
				"stateMutability": "view",
				"type": "function"
			},
			{
				"constant": false,
				"inputs": [
					{
						"internalType": "uint256",
						"name": "_taskIndex",
						"type": "uint256"
					},
					{
						"internalType": "bool",
						"name": "_status",
						"type": "bool"
					}
				],
				"name": "updateStatus",
				"outputs": [],
				"payable": false,
				"stateMutability": "nonpayable",
				"type": "function"
			}
		],
		"devdoc": {
			"methods": {}
		},
		"userdoc": {
			"methods": {}
		}
	},
	"settings": {
		"compilationTarget": {
			"contracts\\TaskManager.sol": "TaskManager"
		},
		"evmVersion": "istanbul",
		"libraries": {},
		"optimizer": {
			"enabled": false,
			"runs": 200
		},
		"remappings": []
	},
	"sources": {
		"contracts\\TaskManager.sol": {
			"keccak256": "0x2a7458c713c65805d37bbfd4daf44292819be8084e15cab05d9419e4224d85c0",
			"urls": [
				"bzz-raw://bda4db246b7da8a3d383ba4da9a21a590016863b7edfb9ec59ffa93e7e624872",
				"dweb:/ipfs/QmXUvLX5RJk6xuLpPd8vnf6uF9RPViK5uvfQMFLk1X2M4b"
			]
		}
	},
	"version": 1
}